Estatística e Informática
…
---

```r
dados_turmas %>% 
  arrange(sexo) 
```

```
#> # A tibble: 79 x 6
#>      id sexo  cor_cabelo grau_alcool altura idade_anos
#>   <dbl> <chr> <chr>      <chr>        <dbl>      <dbl>
#> 1     1 F     CC         mais_social   1.68         19
#> 2     2 F     CE         nao_consome   1.59         20
#> 3     3 F     CE         socialmente   1.5          20
#> 4    15 F     CE         pouco         1.65         20
#> 5    16 F     CC         socialmente   1.58         19
#> # ... with 74 more rows
```
…
