Estatística e Informática
…
---

```r
dados_turmas %>% 
  arrange(sexo) 
```

```
#> # A tibble: 44 × 6
#>      id sexo  cor_cabelo grau_alcool altura idade_anos
#>   <dbl> <chr> <chr>            <dbl>  <dbl>      <dbl>
#> 1     1 F     CC                   4   1.68         19
#> 2     2 F     CE                   1   1.59         20
#> 3     3 F     CC                   2   1.7          49
#> 4     4 F     CE                   3   1.5          20
#> 5    16 F     CE                   2   1.65         20
#> # ℹ 39 more rows
```
…
